[
  {
    "model": "app.education",
    "pk": 1,
    "fields": {
      "created": "2021-12-27T01:40:40.459Z",
      "modified": "2021-12-27T20:31:57.337Z",
      "name": "Bachelor's degree",
      "from_where": "Student",
      "description": "Institut Supérieur des Sciences Appliquées et Technologie de Mahdia ---\r\nCYCLE PRÉPARATOIRE : MATHÉMATIQUES - PHYSIQUES",
      "date_take": "2019-09-01",
      "image_of_deplom": ""
    }
  },
  {
    "model": "app.education",
    "pk": 2,
    "fields": {
      "created": "2021-12-27T20:30:11.288Z",
      "modified": "2021-12-27T20:31:47.549Z",
      "name": "Engineer's degree",
      "from_where": "Student",
      "description": "Faculté des Sciences Mathématiques, Physiques et Naturelles de Tunis ---\r\nElectrical and Electronics Engineering",
      "date_take": "2020-09-01",
      "image_of_deplom": ""
    }
  }
]
