[
  {
    "model": "app.workexperience",
    "pk": 1,
    "fields": {
      "created": "2021-12-27T01:48:32.311Z",
      "modified": "2021-12-27T20:40:51.787Z",
      "name": "Full Stak developer",
      "with_who": "Confledis",
      "description": "Summer Intern  and 3 months off work at Confledis . FrentEnd(Reactjs,Ionic5,Html,Bootstrap..) . BackEnd(Django,Python..) .. Deployment(AWS,Digitalocean,Gunicorn,Ngnix..)",
      "date_of_work": "2021-08-10",
      "recommendations": [1, 2]
    }
  }
]
